module azure_ad

go 1.19

require (
	github.com/arsmn/fiber-swagger/v2 v2.31.1
	github.com/gofiber/fiber/v2 v2.40.0
	github.com/joho/godotenv v1.4.0
	github.com/labstack/gommon v0.4.0
	github.com/sirupsen/logrus v1.9.0
	github.com/swaggo/swag v1.8.7
)

require (
	github.com/KyleBanks/depth v1.2.1 // indirect
	github.com/andybalholm/brotli v1.0.4 // indirect
	github.com/go-openapi/jsonpointer v0.19.5 // indirect
	github.com/go-openapi/jsonreference v0.20.0 // indirect
	github.com/go-openapi/spec v0.20.7 // indirect
	github.com/go-openapi/swag v0.22.3 // indirect
	github.com/josharian/intern v1.0.0 // indirect
	github.com/klauspost/compress v1.15.12 // indirect
	github.com/kr/pretty v0.3.0 // indirect
	github.com/mailru/easyjson v0.7.7 // indirect
	github.com/mattn/go-colorable v0.1.13 // indirect
	github.com/mattn/go-isatty v0.0.16 // indirect
	github.com/mattn/go-runewidth v0.0.14 // indirect
	github.com/rivo/uniseg v0.4.3 // indirect
	github.com/rogpeppe/go-internal v1.8.0 // indirect
	github.com/stretchr/testify v1.8.1 // indirect
	github.com/swaggo/files v0.0.0-20220728132757-551d4a08d97a // indirect
	github.com/valyala/bytebufferpool v1.0.0 // indirect
	github.com/valyala/fasthttp v1.41.0 // indirect
	github.com/valyala/fasttemplate v1.2.1 // indirect
	github.com/valyala/tcplisten v1.0.0 // indirect
	golang.org/x/net v0.2.0 // indirect
	golang.org/x/sys v0.2.0 // indirect
	golang.org/x/tools v0.3.0 // indirect
	gopkg.in/yaml.v3 v3.0.1 // indirect
)
